{
  "products": {
    "content": [
      {
        "category": "Accessories",
        "code": "f230fh0g3",
        "description": "Product Description",
        "id": 1000,
        "image": "bamboo-watch.jpg",
        "internalReference": "REF-123-456",
        "inventoryStatus": "INSTOCK",
        "name": "Bamboo Watch",
        "price": 65.0,
        "quantity": 10,
        "rating": 5.0,
        "shellId": 15
      },
      {
        "category": "Accessories",
        "code": "nvklal433",
        "description": "Product Description",
        "id": 1001,
        "image": "black-watch.jpg",
        "internalReference": "REF-123-456",
        "inventoryStatus": "INSTOCK",
        "name": "Black Watch",
        "price": 72.0,
        "quantity": 5,
        "rating": 4.0,
        "shellId": 15
      },
      {
        "category": "Fitness",
        "code": "zz21cz3c1",
        "description": "Product Description",
        "id": 1002,
        "image": "blue-band.jpg",
        "internalReference": "REF-123-456",
        "inventoryStatus": "LOWSTOCK",
        "name": "Blue Band",
        "price": 79.0,
        "quantity": 11,
        "rating": 3.0,
        "shellId": 15
      },
      {
        "category": "Clothing",
        "code": "244wgerg2",
        "description": "Product Description",
        "id": 1003,
        "image": "blue-t-shirt.jpg",
        "internalReference": "REF-123-456",
        "inventoryStatus": "INSTOCK",
        "name": "Blue T-Shirt",
        "price": 29.0,
        "quantity": 30,
        "rating": 5.0,
        "shellId": 15
      },
      {
        "category": "Accessories",
        "code": "h456wer53",
        "description": "Product Description",
        "id": 1004,
        "image": "bracelet.jpg",
        "internalReference": "REF-123-456",
        "inventoryStatus": "INSTOCK",
        "name": "Bracelet",
        "price": 15.0,
        "quantity": 16,
        "rating": 4.0,
        "shellId": 15
      },
      {
        "category": "Accessories",
        "code": "av2231fwg",
        "description": "Product Description",
        "id": 1005,
        "image": "brown-purse.jpg",
        "internalReference": "REF-123-456",
        "inventoryStatus": "OUTOFSTOCK",
        "name": "Brown Purse",
        "price": 120.0,
        "quantity": 50,
        "rating": 4.0,
        "shellId": 15
      },
      {
        "category": "Accessories",
        "code": "bib36pfvm",
        "description": "Product Description",
        "id": 1006,
        "image": "chakra-bracelet.jpg",
        "internalReference": "REF-123-456",
        "inventoryStatus": "LOWSTOCK",
        "name": "Chakra Bracelet",
        "price": 32.0,
        "quantity": 0,
        "rating": 3.0,
        "shellId": 15
      },
      {
        "category": "Accessories",
        "code": "mbvjkgip5",
        "description": "Product Description",
        "id": 1007,
        "image": "galaxy-earrings.jpg",
        "internalReference": "REF-123-456",
        "inventoryStatus": "INSTOCK",
        "name": "Galaxy Earrings",
        "price": 34.0,
        "quantity": 50,
        "rating": 5.0,
        "shellId": 15
      },
      {
        "category": "Electronics",
        "code": "vbb124btr",
        "description": "Product Description",
        "id": 1008,
        "image": "game-controller.jpg",
        "internalReference": "REF-123-456",
        "inventoryStatus": "LOWSTOCK",
        "name": "Game Controller",
        "price": 99.0,
        "quantity": 99,
        "rating": 4.0,
        "shellId": 15
      },
      {
        "category": "Electronics",
        "code": "cm230f032",
        "description": "Product Description",
        "id": 1009,
        "image": "gaming-set.jpg",
        "internalReference": "REF-123-456",
        "inventoryStatus": "INSTOCK",
        "name": "Gaming Set",
        "price": 299.0,
        "quantity": 20,
        "rating": 3.0,
        "shellId": 15
      }
    ],
    "empty": false,
    "first": true,
    "last": false,
    "number": 0,
    "numberOfElements": 10,
    "pageable": {
      "offset": 0,
      "pageNumber": 0,
      "pageSize": 10,
      "paged": true,
      "sort": {
        "empty": false,
        "sorted": true,
        "unsorted": false
      },
      "unpaged": false
    },
    "size": 10,
    "sort": {
      "empty": false,
      "sorted": true,
      "unsorted": false
    },
    "totalElements": 30,
    "totalPages": 3
  },
  "page": {
    "content": [
      {
        "id": "69b7c4cd85f76f961000b303",
        "state": "ONLINE",
        "name": "Home page",
        "updatedDate": 1773651471939,
        "publishedDate": 1773651471939,
        "blocks": [
          {
            "type": "content-list",
            "title": "Block Content List 1",
            "description": "Description 1",
            "subTitle": "Sous titre",
            "contents": [
              {
                "title": "Titre Content 1",
                "description": "Description Content 1",
                "imageId": "Image Id 1"
              },
              {
                "title": "Titre Content 2",
                "description": "Description Content 2",
                "imageId": "Image Id 2"
              },
              {
                "title": "Titre Content 3",
                "description": "Description Content 3",
                "imageId": "Image Id 3"
              }
            ]
          },
          {
            "type": "event",
            "title": "Block Event 1",
            "description": "Description 2",
            "subTitle": "subtitle",
            "content": {
              "title": "Titre Content 1",
              "description": "Description Content 1",
              "imageId": "Image Id 1"
            }
          },
          {
            "type": "image",
            "title": "Block Image 1",
            "description": "Description 3",
            "imageId": "Image Id",
            "imageUrl": "https://pixabay.com/fr/images/download/andsproject-woman-8706492_1920.png"
          },
          {
            "type": "text",
            "title": "Block Text 1",
            "description": "Description 4",
            "text": "Un texte long"
          },
          {
            "type": "content-list",
            "title": "Block Content List 2",
            "description": "Description 5"
          }
        ]
      },
      {
        "id": "69b7c4ed85f76f961000b304",
        "state": "ONLINE",
        "name": "Actu Page",
        "updatedDate": 1773651462155,
        "publishedDate": 1773651462155,
        "blocks": []
      },
      {
        "id": "69b7c4ed85f76f961000b305",
        "state": "OFFLINE",
        "name": "toto page",
        "updatedDate": 1773651456370,
        "publishedDate": 1773651456370
      },
      {
        "id": "69b7c4ed85f76f961000b306",
        "state": "DELETED",
        "name": "titi",
        "updatedDate": 1773651413718,
        "publishedDate": 1773651413718
      },
      {
        "id": "dimcpg282",
        "name": "test",
        "publishedDate": 1774047600000,
        "state": "OFFLINE",
        "blocks": []
      }
    ],
    "totalElements": 5,
    "totalPages": 1,
    "number": 0
  },
  "mobile-page": [
    {
      "id": "69b7c4cd85f76f961000b303",
      "state": "ONLINE",
      "name": "Home page",
      "updatedDate": 1773651471939,
      "publishedDate": 1773651471939,
      "blocks": [
        {
          "type": "content-list",
          "title": "Block Content List 1",
          "description": "Description 1",
          "subTitle": "Sous titre",
          "contents": [
            {
              "title": "Titre Content 1",
              "description": "Description Content 1",
              "imageId": "Image Id 1"
            },
            {
              "title": "Titre Content 2",
              "description": "Description Content 2",
              "imageId": "Image Id 2"
            },
            {
              "title": "Titre Content 3",
              "description": "Description Content 3",
              "imageId": "Image Id 3"
            }
          ]
        },
        {
          "type": "event",
          "title": "Block Event 1",
          "description": "Description 2",
          "subTitle": "subtitle",
          "content": {
            "title": "Titre Content 1",
            "description": "Description Content 1",
            "imageId": "Image Id 1"
          }
        },
        {
          "type": "image",
          "title": "Block Image 1",
          "description": "Description 3",
          "imageId": "Image Id",
          "imageUrl": "https://media.istockphoto.com/id/1452473204/fr/vectoriel/bonne-famille-cuisinant-le-d%C3%AEner-ensemble-dans-la-cuisine-illustration-vectorielle-de.jpg?s=1024x1024&w=is&k=20&c=dQCB1lwCG1-mHiAZBpBF-bQG5zKcxaC4Lr9C8jRz-ag="
        },
        {
          "type": "text",
          "title": "Block Text 1",
          "description": "Description 4",
          "text": "Un texte long"
        },
        {
          "type": "content-list",
          "title": "Block Content List 2",
          "description": "Description 5"
        }
      ]
    },
    {
      "id": "69b7c4ed85f76f961000b304",
      "state": "ONLINE",
      "name": "Actu Page",
      "updatedDate": 1773651462155,
      "publishedDate": 1773651462155,
      "blocks": []
    },
    {
      "id": "69b7c4ed85f76f961000b305",
      "state": "OFFLINE",
      "name": "toto page",
      "updatedDate": 1773651456370,
      "publishedDate": 1773651456370
    },
    {
      "id": "69b7c4ed85f76f961000b306",
      "state": "DELETED",
      "name": "titi",
      "updatedDate": 1773651413718,
      "publishedDate": 1773651413718
    },
    {
      "id": "dimcpg282",
      "name": "test",
      "publishedDate": 1774047600000,
      "state": "OFFLINE",
      "blocks": []
    }
  ],
  "mapJobs": {
    "MAINTENANCE": [
      {
        "name": "CleanupLogs",
        "group": "MAINTENANCE",
        "description": "Nettoie les vieux logs",
        "cronExpression": "0 0 2 * * ?",
        "status": "NORMAL",
        "nextFireTime": 1773844313139
      },
      {
        "name": "DbBackup",
        "group": "MAINTENANCE",
        "description": "Sauvegarde la base",
        "cronExpression": "0 0 4 * * ?",
        "status": "PAUSED",
        "nextFireTime": null
      }
    ],
    "REPORTING": [
      {
        "name": "WeeklyReport",
        "group": "REPORTING",
        "description": "Génère le PDF hebdo",
        "cronExpression": "0 0 8 ? * MON",
        "status": "EXECUTING",
        "nextFireTime": 1773999999999
      }
    ]
  },
  "jobTypes": [
    { "id": "SHELL", "description": "Script Shell" },
    { "id": "JAVA", "description": "Classe Java" }
  ],
  "mockedLogs": {
    "content": [
      {
        "id": 101,
        "jobName": "CleanupLogs",
        "timestamp": 1773844310000,
        "stepName": "INIT",
        "status": "SUCCESS",
        "message": "Initialisation du job de nettoyage."
      },
      {
        "id": 102,
        "jobName": "CleanupLogs",
        "timestamp": 1773844312000,
        "stepName": "EXECUTION",
        "status": "RUNNING",
        "message": "Suppression des anciens fichiers en cours..."
      },
      {
        "id": 103,
        "jobName": "CleanupLogs",
        "timestamp": 1773844315000,
        "stepName": "FINISH",
        "status": "ERROR",
        "message": "Erreur de permission sur le dossier /var/logs."
      }
    ],
    "totalElements": 3,
    "totalPages": 1,
    "size": 10,
    "number": 0
  }
}
